<svg width="158" height="145" viewBox="0 0 158 145" fill="none" xmlns="http://www.w3.org/2000/svg">
<path fill-rule="evenodd" clip-rule="evenodd" d="M78.8267 0C77.4652 0 76.3616 1.10367 76.3616 2.46512V14.1744C76.3616 15.5359 77.4652 16.6396 78.8267 16.6396C80.1881 16.6396 81.2918 15.5359 81.2918 14.1744V2.46512C81.2918 1.10367 80.1881 0 78.8267 0ZM35.9335 36.1562C36.2822 35.6634 36.6711 35.1998 37.1173 34.7931C44.3495 28.2009 61.0295 20.1283 75.4137 36.1203C75.537 36.2574 75.6227 36.4527 75.7056 36.6415C75.7527 36.7489 75.799 36.8542 75.8507 36.9455C76.1777 37.523 76.8791 38.7617 75.7455 42.5027L78.8269 44.5056L81.9083 42.5027C81.3947 41.4242 80.6757 38.7125 81.9083 36.4939C83.449 33.7207 98.856 19.8544 118.269 33.1044C119.604 33.9775 123.415 37.48 127.975 44.5056L156.39 84.9311C157.358 86.3074 158.367 88.2045 157.218 89.4337C156.831 89.8487 156.243 90.1179 155.378 90.0739C154.454 90.0269 153.732 89.4548 153.19 88.705C149.242 83.2355 132.123 58.6699 122.731 45.1624C122.422 44.7183 122.164 44.2575 121.9 43.7854C119.748 39.9378 113.709 33.2712 103.591 32.1C103.108 32.0441 102.62 32.038 102.136 32.0748C98.084 32.3824 92.0985 33.4022 88.6593 35.5591C86.0562 37.1917 88.6651 39.3047 91.6925 38.779C99.5885 37.4078 110.926 38.5325 118.464 49.2469C119.18 50.2647 119.937 51.671 119.112 52.6023C119.045 52.6779 118.969 52.748 118.883 52.8111C117.314 53.9608 115.408 52.0254 114.025 50.6222L113.959 50.5551C108.03 44.5398 96.4035 38.0741 83.9909 47.0223C82.5855 48.0354 81.3599 49.5441 81.565 51.2643C81.7113 52.4914 82.407 53.596 84.2181 53.8072C85.3054 53.934 86.3548 53.5175 87.3804 53.1105L87.531 53.0508C87.6026 53.0225 87.674 52.9944 87.7453 52.9667C92.1371 51.2578 100.009 50.4979 106.251 57.6015C110.034 62.1308 115.283 73.6545 107.076 84.459C106.547 85.1561 105.891 85.7423 105.163 86.2288C101.985 88.3538 96.4506 91.7555 92.4978 93.202C91.9153 93.4151 91.3381 93.6447 90.7886 93.9325L85.0326 96.9476C83.0108 98.0067 81.0505 99.7442 81.2615 102.017C81.4251 103.779 82.5996 105.27 86.0682 104.901C91.5722 104.315 102.148 103.035 107.462 102.38C107.992 102.314 108.521 102.287 109.053 102.331C112.162 102.586 118.106 103.75 122.275 106.904C126.6 110.177 141.798 128.859 149.971 139.19C150.813 140.255 151.691 141.547 151.246 142.829C151.066 143.351 150.693 143.777 150.021 143.935C148.305 144.338 146.793 142.86 145.662 141.508L122.275 113.529C120.22 111.321 114.54 106.904 108.254 106.904L87.1028 109.695C86.4149 109.786 85.7188 109.813 85.0318 109.716C82.8704 109.409 79.7139 108.579 78.9809 106.904C77.3437 108.433 76.1415 109.145 74.1338 109.591C73.2675 109.783 72.3715 109.78 71.49 109.677L49.1536 107.09C48.0919 106.967 47.0139 107 45.9878 107.3C42.9046 108.199 38.1173 110.221 35.5332 113.529C32.6165 117.262 18.7029 133.345 11.0391 142.153C10.22 143.095 9.22157 144.104 7.98211 143.96C7.04311 143.851 6.17861 143.146 6.10582 141.107C5.98601 137.753 24.5881 118.015 34.6845 107.764C35.2493 107.19 35.8765 106.687 36.5783 106.293C39.4402 104.685 44.4058 102.373 47.5507 102.59C50.8763 102.819 63.8843 104.133 71.263 104.894C72.2957 105.001 73.3671 105.007 74.2883 104.528C75.4416 103.928 76.4981 102.862 76.3891 101.2C76.2689 99.3671 74.5707 98.1442 72.9325 97.3125L65.4228 93.4998C61.3656 91.651 52.9123 87.4603 51.5565 85.4882C51.4881 85.3887 51.4062 85.2721 51.3128 85.1391C49.0934 81.9782 40.3805 69.5693 51.5565 57.6015C60.0896 48.4639 68.3862 52.2283 71.7216 53.7416L71.7397 53.7498C74.7881 54.2579 76.61 52.8579 76.2677 50.3841C76.1045 49.2044 75.3363 48.2139 74.4151 47.4592C68.5726 42.6721 56.1281 38.2967 43.138 51.4635C42.2691 52.3442 41.2868 53.2884 40.0496 53.2751C39.0331 53.2641 38.0736 52.7036 37.9983 50.8224C37.8595 47.3526 49.9741 35.6304 66.2322 38.7468C69.2115 39.3179 71.572 37.35 69.0636 35.644C66.6362 33.9929 62.3032 32.5164 54.946 32.0259C50.7258 31.8249 41.1386 33.934 35.8773 43.8342C35.6426 44.2758 35.3896 44.7116 35.1035 45.1218L5.66991 87.3339C4.55135 88.9381 3.22304 90.5768 1.41745 89.8255C-0.350339 89.0899 0.536856 86.1895 1.64269 84.6264L35.9335 36.1562ZM90.8501 88.9799C91.3589 88.7069 91.8885 88.4841 92.43 88.2837C99.0842 85.8209 110.036 78.6988 106.251 67.462C101.633 53.7505 92.8579 56.3585 87.1742 58.0478C86.7907 58.1618 86.4213 58.2716 86.0682 58.3719C82.5272 59.3779 80.2311 57.4141 79.0763 56.4263C78.9862 56.3493 78.9031 56.2782 78.8269 56.2149C77.9146 57.5419 75.8351 58.1062 74.0245 58.3021C72.5269 58.4641 71.0725 57.9501 69.6657 57.4112C64.0244 55.2501 54.7541 55.0175 51.5565 67.462C48.2268 80.4208 59.4091 86.1708 65.7213 88.2346C66.4422 88.4703 67.1439 88.7559 67.8066 89.125L78.9809 95.3487L90.8501 88.9799ZM104.397 5.91797C104.988 4.69169 106.462 4.17702 107.688 4.76844C108.914 5.35985 109.429 6.83338 108.838 8.05967L103.181 19.7891C102.589 21.0154 101.116 21.5301 99.8895 20.9387C98.6632 20.3473 98.1485 18.8737 98.7399 17.6475L104.397 5.91797ZM130.062 18.0467C128.835 17.4553 127.362 17.9699 126.771 19.1962L123.654 25.6593C123.062 26.8855 123.577 28.3591 124.803 28.9505C126.029 29.5419 127.503 29.0272 128.094 27.801L131.211 21.3379C131.803 20.1116 131.288 18.6381 130.062 18.0467ZM48.797 8.09234C48.1937 6.87187 48.6939 5.3934 49.9144 4.79006C51.1349 4.18673 52.6133 4.68701 53.2167 5.90747L58.9873 17.5807C59.5907 18.8012 59.0904 20.2797 57.8699 20.883C56.6495 21.4863 55.171 20.986 54.5677 19.7656L48.797 8.09234ZM27.6711 18.0683C26.5085 18.6431 26.0319 20.0515 26.6066 21.2141L29.8268 27.728C30.4015 28.8906 31.8099 29.3672 32.9726 28.7925C34.1352 28.2177 34.6118 26.8093 34.037 25.6467L30.8169 19.1328C30.2421 17.9701 28.8337 17.4936 27.6711 18.0683Z" fill="url(#paint0_linear)"/>
<defs>
<linearGradient id="paint0_linear" x1="0.414065" y1="144.002" x2="171.572" y2="125.057" gradientUnits="userSpaceOnUse">
<stop stop-color="#2192BF"/>
<stop offset="1" stop-color="#1AD2D6"/>
</linearGradient>
</defs>
</svg>
